[
    {
      "subheader": "general",
      "items": [
        {
          "title": "dashboard",
          "icon": "dashboard",
          "href": "/app/dashboard",
          "items": [
            {
              "title": "analytics",
              "href": "/app/dashboard/analytics"
            }  
          ]
        }
      ]
    },
    {
      "subheader": "setting",
      "items": [
        {
          "title": "configurations",
          "icon": "settings",
          "href": "/app/setting",
          "items": [
            {
              "name": "tracking",
              "title": "tracking",
              "href": "/app/tracking"
            },          
            {
              "name": "language",
              "title": "language",
              "href": "/app/listing/language"
            },
            {
              "name": "users",
              "title": "users",
              "href": "/app/listing/user"
            },            
            {
              "name": "template",
              "title": "template",
              "href": "/app/listing/template"
            },         
            {
              "name": "forms",
              "title": "forms",
              "href": "/app/listing/fillform"
            }
          ]
        }
      ]
    },
    {
      "subheader": "file manager",
      "items": [
        {
          "name": "filemanager",
          "title": "File manager",
          "href": "/app/filemanager",
          "icon": "filemanager"
        }
      ]
    },    
    {
        "subheader": "website",
        "items": [
            {
                "name": "page",
                "title": "Pages",
                "href": "/app/listing/page",
                "icon": "page"
            },
            {
              "name": "product",
              "title": "Products",
              "href": "/app/listing/product",
              "icon": "product"
            },
            {
              "name": "property",
              "title": "Properties",
              "href": "/app/listing/property",
              "icon": "property"
            },            
            {
              "name": "sector",
              "title": "Sectors",
              "href": "/app/listing/sector",
              "icon": "categories"
            },
            {
              "name": "designer",
              "title": "Designers",
              "href": "/app/listing/designer",
              "icon": "editor"
            },
            {
              "name": "project",
              "title": "Projects",
              "href": "/app/listing/project",
              "icon": "casehistory"
            },
            {
              "name": "blog",
              "title": "Blog",
              "href": "/app/listing/blog",
              "icon": "blog"
            },
            {
              "name": "plus",
              "title": "Plus",
              "href": "/app/listing/plus",
              "icon": "elements"
            },
            {
              "name": "selectedby",
              "title": "Selected by",
              "href": "/app/listing/selectedby",
              "icon": "copy"
            },
            {
              "name": "arredo",
              "title": "Arredo",
              "href": "/app/listing/arredo",
              "icon": "configurations"
            },
            {
              "name": "formatpers",
              "title": "Format Pers",
              "href": "/app/listing/formatpers",
              "icon": "carousel"
            },
            {
              "name": "whyifi",
              "title": "Why Ifi",
              "href": "/app/listing/whyifi",
              "icon": "services"
            },
            {
              "name": "technology",
              "title": "Technology",
              "href": "/app/listing/technology",
              "icon": "upload"
            },           
            {
              "name": "openposition",
              "title": "Open Position",
              "href": "/app/listing/openposition",
              "icon": "upload"
            }   
        ]
    }
]